<svg width="144" height="144" viewBox="0 0 144 144" fill="none" xmlns="http://www.w3.org/2000/svg">
<g clip-path="url(#clip0_1413_1103)">
<path d="M72 144C111.765 144 144 111.765 144 72C144 32.2355 111.765 0 72 0C32.2355 0 0 32.2355 0 72C0 111.765 32.2355 144 72 144Z" fill="#385C9F"/>
<path d="M89.7405 118.742H54.2589C49.5789 118.742 45.7773 114.941 45.7773 110.261V33.7392C45.7773 29.0592 49.5789 25.2576 54.2589 25.2576H89.7405C94.4205 25.2576 98.2221 29.0592 98.2221 33.7392V110.261C98.2221 114.955 94.4349 118.742 89.7405 118.742Z" stroke="white" stroke-width="2" stroke-miterlimit="10"/>
<path d="M45.7773 38.3616H98.2221" stroke="white" stroke-width="2" stroke-miterlimit="10"/>
<path d="M45.6211 105.638H98.2243" stroke="white" stroke-width="2" stroke-miterlimit="10"/>
<path d="M72.0016 115.474C73.6399 115.474 74.968 114.145 74.968 112.507C74.968 110.869 73.6399 109.541 72.0016 109.541C70.3633 109.541 69.0352 110.869 69.0352 112.507C69.0352 114.145 70.3633 115.474 72.0016 115.474Z" fill="#BAE3E5"/>
<path d="M76.6219 32.9328H67.3771C67.1611 32.9328 66.9883 32.76 66.9883 32.544V31.248C66.9883 31.032 67.1611 30.8592 67.3771 30.8592H76.6219C76.8379 30.8592 77.0107 31.032 77.0107 31.248V32.544C77.0107 32.7456 76.8379 32.9328 76.6219 32.9328Z" fill="white"/>
<path d="M72.0003 114.754C73.241 114.754 74.2467 113.748 74.2467 112.507C74.2467 111.267 73.241 110.261 72.0003 110.261C70.7597 110.261 69.7539 111.267 69.7539 112.507C69.7539 113.748 70.7597 114.754 72.0003 114.754Z" fill="white"/>
<path d="M108.465 65H80.5352C77.4883 65 75 62.5443 75 59.5C75 56.4725 77.4714 54 80.5352 54H108.465C111.512 54 114 56.4557 114 59.5C113.983 62.5443 111.512 65 108.465 65Z" fill="#E6EEFF" stroke="white" stroke-width="1.5" stroke-miterlimit="10"/>
<path d="M88.5072 57.792L89.1264 58.8864L87.2544 59.5776L89.1264 60.2832L88.4928 61.4064L86.9376 60.168L87.2256 62.1552H85.9584L86.2176 60.168L84.6624 61.4208L84 60.2544L85.8576 59.5632L84 58.8864L84.6336 57.7632L86.232 59.0016L85.9584 57H87.2256L86.9232 59.0016L88.5072 57.792Z" fill="#385C9F"/>
<path d="M96.226 57.792L96.8452 58.8864L94.9732 59.5776L96.8452 60.2832L96.2116 61.4064L94.6564 60.168L94.9443 62.1552H93.6772L93.9364 60.168L92.3812 61.4208L91.7188 60.2544L93.5764 59.5632L91.7188 58.8864L92.3524 57.7632L93.9508 59.0016L93.6772 57H94.9443L94.6419 59.0016L96.226 57.792Z" fill="#385C9F"/>
<path d="M103.929 57.792L104.548 58.8864L102.676 59.5776L104.548 60.2832L103.915 61.4064L102.359 60.168L102.647 62.1552H101.38L101.639 60.168L100.084 61.4208L99.4219 60.2544L101.279 59.5632L99.4219 58.8864L100.055 57.7632L101.654 59.0016L101.38 57H102.647L102.345 59.0016L103.929 57.792Z" fill="#385C9F"/>
</g>
<defs>
<clipPath id="clip0_1413_1103">
<rect width="144" height="144" fill="white"/>
</clipPath>
</defs>
</svg>
